<?xml version="1.0" encoding="UTF-8" standalone="no"?>
<!-- Created with Inkscape (http://www.inkscape.org/) -->

<svg
   xmlns:dc="http://purl.org/dc/elements/1.1/"
   xmlns:cc="http://creativecommons.org/ns#"
   xmlns:rdf="http://www.w3.org/1999/02/22-rdf-syntax-ns#"
   xmlns:svg="http://www.w3.org/2000/svg"
   xmlns="http://www.w3.org/2000/svg"
   xmlns:sodipodi="http://sodipodi.sourceforge.net/DTD/sodipodi-0.dtd"
   xmlns:inkscape="http://www.inkscape.org/namespaces/inkscape"
   width="297mm"
   height="210mm"
   viewBox="0 0 297 210"
   version="1.1"
   id="svg8"
   inkscape:version="0.92.4 (5da689c313, 2019-01-14)"
   sodipodi:docname="templates_y.svg"
   inkscape:export-filename="D:\replicatesyndicate\Documents\_metu\2020\me536\_project\templates_y.png"
   inkscape:export-xdpi="125"
   inkscape:export-ydpi="125">
  <defs
     id="defs2" />
  <sodipodi:namedview
     id="base"
     pagecolor="#ffffff"
     bordercolor="#666666"
     borderopacity="1.0"
     inkscape:pageopacity="0.0"
     inkscape:pageshadow="2"
     inkscape:zoom="0.98994949"
     inkscape:cx="299.60228"
     inkscape:cy="389.6325"
     inkscape:document-units="mm"
     inkscape:current-layer="layer1"
     showgrid="true"
     showguides="false"
     inkscape:window-width="1920"
     inkscape:window-height="1027"
     inkscape:window-x="-8"
     inkscape:window-y="-8"
     inkscape:window-maximized="1">
    <inkscape:grid
       type="xygrid"
       id="grid3713" />
  </sodipodi:namedview>
  <metadata
     id="metadata5">
    <rdf:RDF>
      <cc:Work
         rdf:about="">
        <dc:format>image/svg+xml</dc:format>
        <dc:type
           rdf:resource="http://purl.org/dc/dcmitype/StillImage" />
        <dc:title />
      </cc:Work>
    </rdf:RDF>
  </metadata>
  <g
     inkscape:label="Layer 1"
     inkscape:groupmode="layer"
     id="layer1"
     transform="translate(0,-87)">
    <path
       style="fill:none;stroke:#000000;stroke-width:0.26458332px;stroke-linecap:butt;stroke-linejoin:miter;stroke-opacity:1"
       d="M 99.21875,297 V 85.333348"
       id="path3715"
       inkscape:connector-curvature="0" />
    <path
       style="fill:none;stroke:#000000;stroke-width:0.26458332px;stroke-linecap:butt;stroke-linejoin:miter;stroke-opacity:1"
       d="M 198.4375,297 V 85.333348"
       id="path3717"
       inkscape:connector-curvature="0" />
    <path
       style="fill:none;stroke:#000000;stroke-width:0.26458332px;stroke-linecap:butt;stroke-linejoin:miter;stroke-opacity:1"
       d="M 0,192.48959 H 296.33333"
       id="path3719"
       inkscape:connector-curvature="0" />
    <path
       sodipodi:type="star"
       style="opacity:1;fill:#ffff00;fill-opacity:0.97989947;stroke:#ffffff;stroke-width:0.22949675;stroke-miterlimit:4;stroke-dasharray:none;stroke-dashoffset:0;stroke-opacity:1"
       id="path3721"
       sodipodi:sides="3"
       sodipodi:cx="48.947915"
       sodipodi:cy="150.90929"
       sodipodi:r1="54.992619"
       sodipodi:r2="27.496309"
       sodipodi:arg1="-1.5707963"
       sodipodi:arg2="-0.52359878"
       inkscape:flatsided="false"
       inkscape:rounded="0"
       inkscape:randomized="0"
       d="m 48.947916,95.916668 23.8125,41.244462 23.812502,41.24447 -47.625004,0 -47.6250053,-1e-5 23.8125033,-41.24446 z"
       inkscape:transform-center-y="-13.748156" />
    <path
       sodipodi:type="star"
       style="opacity:1;fill:#ffff00;fill-opacity:0.97989947;stroke:#ffffff;stroke-width:0.43122724;stroke-miterlimit:4;stroke-dasharray:none;stroke-dashoffset:0;stroke-opacity:1"
       id="path3725"
       sodipodi:sides="4"
       sodipodi:cx="148.43124"
       sodipodi:cy="138.51459"
       sodipodi:r1="66.977745"
       sodipodi:r2="47.360413"
       sodipodi:arg1="0.78539816"
       sodipodi:arg2="1.5707963"
       inkscape:flatsided="true"
       inkscape:rounded="0"
       inkscape:randomized="0"
       d="m 195.79166,185.875 -94.72083,1e-5 0,-94.72084 94.72083,0 z"
       transform="matrix(0.88623646,0,0,0.8863475,16.982291,13.187659)" />
    <path
       style="opacity:1;fill:#ffff00;fill-opacity:0.97989947;stroke:#ffffff;stroke-width:0.26499999;stroke-miterlimit:4;stroke-dasharray:none;stroke-dashoffset:0;stroke-opacity:1"
       id="path4532"
       sodipodi:type="arc"
       sodipodi:cx="248.70903"
       sodipodi:cy="135.84651"
       sodipodi:rx="42.333332"
       sodipodi:ry="42.333332"
       sodipodi:start="0"
       sodipodi:end="6.2774606"
       sodipodi:open="true"
       d="m 291.04236,135.84651 a 42.333332,42.333332 0 0 1 -42.27274,42.33329 42.333332,42.333332 0 0 1 -42.39375,-42.21212 42.333332,42.333332 0 0 1 42.1514,-42.45411 42.333332,42.333332 0 0 1 42.5144,42.0906" />
    <path
       sodipodi:type="star"
       style="opacity:1;fill:#ffff00;fill-opacity:0.97989947;stroke:#ffffff;stroke-width:0.20231144;stroke-miterlimit:4;stroke-dasharray:none;stroke-dashoffset:0;stroke-opacity:1"
       id="path4536"
       sodipodi:sides="5"
       sodipodi:cx="49.229836"
       sodipodi:cy="247.48016"
       sodipodi:r1="44.8498"
       sodipodi:r2="36.284252"
       sodipodi:arg1="0.94531129"
       sodipodi:arg2="1.5736298"
       inkscape:flatsided="true"
       inkscape:rounded="0"
       inkscape:randomized="0"
       d="M 75.48897,283.83897 22.765079,283.68957 6.6145824,233.50001 49.356917,202.63054 91.923629,233.74173 Z"
       inkscape:transform-center-x="-0.039270133"
       inkscape:transform-center-y="-4.2454106" />
    <path
       sodipodi:type="star"
       style="opacity:1;fill:#ffff00;fill-opacity:0.97989947;stroke:#ffffff;stroke-width:0.83453345;stroke-miterlimit:4;stroke-dasharray:none;stroke-dashoffset:0;stroke-opacity:1"
       id="path4542"
       sodipodi:sides="6"
       sodipodi:cx="149.06558"
       sodipodi:cy="244.08335"
       sodipodi:r1="45.827168"
       sodipodi:r2="39.687496"
       sodipodi:arg1="0"
       sodipodi:arg2="0.52359878"
       inkscape:flatsided="true"
       inkscape:rounded="0"
       inkscape:randomized="0"
       d="m 194.89275,244.08334 -22.91358,39.68749 H 126.152 l -22.91359,-39.68749 22.91359,-39.68749 45.82717,0 z"
       inkscape:transform-center-x="4.4606063e-06" />
    <path
       sodipodi:type="star"
       style="opacity:1;fill:#ffff00;fill-opacity:0.97989947;stroke:#ffffff;stroke-width:0.30224061;stroke-miterlimit:4;stroke-dasharray:none;stroke-dashoffset:0;stroke-opacity:1"
       id="path4546"
       sodipodi:sides="5"
       sodipodi:cx="48.31049"
       sodipodi:cy="247.5675"
       sodipodi:r1="45.264812"
       sodipodi:r2="17.20063"
       sodipodi:arg1="0.92729522"
       sodipodi:arg2="1.5556137"
       inkscape:flatsided="false"
       inkscape:rounded="0"
       inkscape:randomized="0"
       d="M 75.469377,283.77935 48.57163,264.76615 22.263531,284.58722 32.034301,253.13054 5.0536968,234.2351 37.990111,233.807 l 9.633169,-31.49909 10.585054,31.1921 32.934229,-0.57206 -26.39449,19.70587 z"
       inkscape:transform-center-x="0.025277821"
       inkscape:transform-center-y="-4.1825782"
       transform="matrix(0.97312669,0.01296858,-0.01296858,0.97312669,204.04623,6.9725317)" />
  </g>
</svg>
